127.0.0.1 - - [01/Apr/2024:09:45:46 +0530] "GET / HTTP/1.1" 404 752
0:0:0:0:0:0:0:1 - - [01/Apr/2024:09:45:48 +0530] "GET /EmpWebApp/login.html HTTP/1.1" 304 -
0:0:0:0:0:0:0:1 - - [01/Apr/2024:09:47:35 +0530] "GET /EmpWebApp/LoginPage?userName=HR&password=HR HTTP/1.1" 200 28
127.0.0.1 - - [01/Apr/2024:09:58:38 +0530] "GET / HTTP/1.1" 404 752
0:0:0:0:0:0:0:1 - - [01/Apr/2024:09:58:48 +0530] "GET /EmpWebApp/LoginPage?userName=HR&password=HR HTTP/1.1" 200 28
127.0.0.1 - - [01/Apr/2024:09:59:12 +0530] "GET / HTTP/1.1" 404 752
0:0:0:0:0:0:0:1 - - [01/Apr/2024:09:59:13 +0530] "GET /EmpWebApp/LoginPage HTTP/1.1" 500 1073
0:0:0:0:0:0:0:1 - - [01/Apr/2024:09:59:36 +0530] "GET /EmpWebApp/LoginPage?userName=HR&password=HR HTTP/1.1" 200 48
0:0:0:0:0:0:0:1 - - [01/Apr/2024:10:00:12 +0530] "GET /EmpWebApp/LoginPage?userName=HR&password=HR HTTP/1.1" 200 48
0:0:0:0:0:0:0:1 - - [01/Apr/2024:10:08:36 +0530] "GET /EmpWebApp/LoginPage?userName=HR&password=HR HTTP/1.1" 200 48
0:0:0:0:0:0:0:1 - - [01/Apr/2024:10:09:22 +0530] "GET /EmpWebApp/LoginPage?userName=HR&password=HR HTTP/1.1" 200 48
0:0:0:0:0:0:0:1 - - [01/Apr/2024:10:09:33 +0530] "GET /EmpWebApp/LoginPage?userName=HR&password=HR HTTP/1.1" 200 48
0:0:0:0:0:0:0:1 - - [01/Apr/2024:10:09:33 +0530] "GET /favicon.ico HTTP/1.1" 404 763
0:0:0:0:0:0:0:1 - - [01/Apr/2024:10:10:02 +0530] "GET /EmpWebApp/login.html HTTP/1.1" 200 334
0:0:0:0:0:0:0:1 - - [01/Apr/2024:10:10:13 +0530] "POST /EmpWebApp/LoginPage HTTP/1.1" 200 48
127.0.0.1 - - [01/Apr/2024:10:33:42 +0530] "GET / HTTP/1.1" 404 752
0:0:0:0:0:0:0:1 - - [01/Apr/2024:10:33:53 +0530] "GET /EmpWebApp/login.html HTTP/1.1" 200 333
0:0:0:0:0:0:0:1 - - [01/Apr/2024:10:34:03 +0530] "POST /EmpWebApp/LoginPage HTTP/1.1" 404 773
0:0:0:0:0:0:0:1 - - [01/Apr/2024:10:34:42 +0530] "POST /EmpWebApp/LoginPage HTTP/1.1" 404 773
127.0.0.1 - - [01/Apr/2024:10:35:54 +0530] "GET / HTTP/1.1" 404 752
0:0:0:0:0:0:0:1 - - [01/Apr/2024:10:36:12 +0530] "POST /EmpWebApp/LoginPage HTTP/1.1" 404 773
127.0.0.1 - - [01/Apr/2024:10:38:10 +0530] "GET / HTTP/1.1" 404 752
0:0:0:0:0:0:0:1 - - [01/Apr/2024:10:38:19 +0530] "GET /EmpWebApp/login.html HTTP/1.1" 200 329
0:0:0:0:0:0:0:1 - - [01/Apr/2024:10:38:26 +0530] "POST /EmpWebApp/LoginPage HTTP/1.1" 404 773
127.0.0.1 - - [01/Apr/2024:10:39:40 +0530] "GET / HTTP/1.1" 404 752
0:0:0:0:0:0:0:1 - - [01/Apr/2024:10:39:50 +0530] "GET /EmpWebApp/login.html HTTP/1.1" 304 -
0:0:0:0:0:0:0:1 - - [01/Apr/2024:10:39:57 +0530] "POST /EmpWebApp/LoginPage HTTP/1.1" 200 125
127.0.0.1 - - [01/Apr/2024:10:41:58 +0530] "GET / HTTP/1.1" 404 752
0:0:0:0:0:0:0:1 - - [01/Apr/2024:10:42:11 +0530] "GET /EmpWebApp/login.html HTTP/1.1" 304 -
0:0:0:0:0:0:0:1 - - [01/Apr/2024:10:42:17 +0530] "GET /EmpWebApp/LoginPage?userName=HR&password=HR HTTP/1.1" 200 124
0:0:0:0:0:0:0:1 - - [01/Apr/2024:10:42:55 +0530] "GET /EmpWebApp/LoginPage?userName=HR&password=HR HTTP/1.1" 200 124
127.0.0.1 - - [01/Apr/2024:10:43:26 +0530] "GET / HTTP/1.1" 404 752
0:0:0:0:0:0:0:1 - - [01/Apr/2024:10:43:34 +0530] "GET /EmpWebApp/LoginPage?userName=HR&password=HR HTTP/1.1" 200 125
127.0.0.1 - - [01/Apr/2024:10:44:33 +0530] "GET / HTTP/1.1" 404 752
0:0:0:0:0:0:0:1 - - [01/Apr/2024:10:44:41 +0530] "GET /EmpWebApp/LoginPage?userName=HR&password=HR HTTP/1.1" 200 125
127.0.0.1 - - [01/Apr/2024:10:50:06 +0530] "GET / HTTP/1.1" 404 752
0:0:0:0:0:0:0:1 - - [01/Apr/2024:10:50:16 +0530] "GET /EmpWebApp/LoginPage?userName=HR123&password=1234 HTTP/1.1" 500 44
127.0.0.1 - - [01/Apr/2024:10:51:06 +0530] "GET / HTTP/1.1" 404 752
0:0:0:0:0:0:0:1 - - [01/Apr/2024:10:51:19 +0530] "GET /EmpWebApp/LoginPage?userName=HR123&password=1234 HTTP/1.1" 500 1605
127.0.0.1 - - [01/Apr/2024:10:52:21 +0530] "GET / HTTP/1.1" 404 752
0:0:0:0:0:0:0:1 - - [01/Apr/2024:10:52:30 +0530] "GET /EmpWebApp/LoginPage?userName=akjb&password=1123 HTTP/1.1" 200 373
0:0:0:0:0:0:0:1 - - [01/Apr/2024:10:54:26 +0530] "GET /EmpWebApp/LoginPage?userName=&password= HTTP/1.1" 200 373
0:0:0:0:0:0:0:1 - - [01/Apr/2024:10:57:55 +0530] "GET /EmpWebApp/LoginPage?userName=&password= HTTP/1.1" 200 379
0:0:0:0:0:0:0:1 - - [01/Apr/2024:11:00:09 +0530] "GET /EmpWebApp/LoginPage?userName=&password= HTTP/1.1" 200 379
0:0:0:0:0:0:0:1 - - [01/Apr/2024:11:13:25 +0530] "GET /EmpWebApp/login.html HTTP/1.1" 200 335
0:0:0:0:0:0:0:1 - - [01/Apr/2024:11:13:33 +0530] "POST /EmpWebApp/LoginPage HTTP/1.1" 200 125
127.0.0.1 - - [01/Apr/2024:11:15:08 +0530] "GET / HTTP/1.1" 404 752
0:0:0:0:0:0:0:1 - - [01/Apr/2024:11:15:09 +0530] "GET /EmpWebApp/login.html HTTP/1.1" 304 -
0:0:0:0:0:0:0:1 - - [01/Apr/2024:11:15:17 +0530] "POST /EmpWebApp/LoginPage HTTP/1.1" 200 148
127.0.0.1 - - [01/Apr/2024:11:16:14 +0530] "GET / HTTP/1.1" 404 752
0:0:0:0:0:0:0:1 - - [01/Apr/2024:11:16:15 +0530] "GET /EmpWebApp/login.html HTTP/1.1" 304 -
0:0:0:0:0:0:0:1 - - [01/Apr/2024:11:16:22 +0530] "POST /EmpWebApp/LoginPage HTTP/1.1" 200 168
127.0.0.1 - - [01/Apr/2024:11:16:50 +0530] "GET / HTTP/1.1" 404 752
0:0:0:0:0:0:0:1 - - [01/Apr/2024:11:16:51 +0530] "GET /EmpWebApp/HRHomePage HTTP/1.1" 200 171
127.0.0.1 - - [01/Apr/2024:11:17:28 +0530] "GET / HTTP/1.1" 404 752
0:0:0:0:0:0:0:1 - - [01/Apr/2024:11:17:29 +0530] "GET /EmpWebApp/HRHomePage HTTP/1.1" 200 172
127.0.0.1 - - [01/Apr/2024:11:17:54 +0530] "GET / HTTP/1.1" 404 752
0:0:0:0:0:0:0:1 - - [01/Apr/2024:11:17:55 +0530] "GET /EmpWebApp/HRHomePage HTTP/1.1" 200 170
127.0.0.1 - - [01/Apr/2024:11:18:50 +0530] "GET / HTTP/1.1" 404 752
0:0:0:0:0:0:0:1 - - [01/Apr/2024:11:18:51 +0530] "GET /EmpWebApp/login.html HTTP/1.1" 304 -
0:0:0:0:0:0:0:1 - - [01/Apr/2024:11:18:58 +0530] "POST /EmpWebApp/LoginPage HTTP/1.1" 200 170
127.0.0.1 - - [01/Apr/2024:23:16:52 +0530] "GET / HTTP/1.1" 404 752
0:0:0:0:0:0:0:1 - - [01/Apr/2024:23:16:53 +0530] "GET /EmpWebApp/login.html HTTP/1.1" 200 335
0:0:0:0:0:0:0:1 - - [01/Apr/2024:23:17:05 +0530] "POST /EmpWebApp/LoginPage HTTP/1.1" 200 170
0:0:0:0:0:0:0:1 - - [01/Apr/2024:23:21:35 +0530] "POST /EmpWebApp/LoginPage HTTP/1.1" 200 170
127.0.0.1 - - [01/Apr/2024:23:39:39 +0530] "GET / HTTP/1.1" 404 752
