<?xml version="1.0" encoding="UTF-8"?>
<session version="1.0">
<refactoring comment="Rename compilation unit &apos;com.dao.ProductRespository.java&apos; to &apos;ProductRepository.java&apos;&#x0D;&#x0A;- Original project: &apos;Product&apos;&#x0D;&#x0A;- Original element: &apos;com.dao.ProductRespository.java&apos;&#x0D;&#x0A;- Renamed element: &apos;com.dao.ProductRepository.java&apos;" description="Rename compilation unit &apos;ProductRespository.java&apos;" flags="2" id="org.eclipse.jdt.ui.rename.compilationunit" input="/src\/main\/java&lt;com.dao{ProductRespository.java" name="ProductRepository.java" references="false" stamp="1713944506111" version="1.0"/>
</session>